\boolfalse {citerequest}\boolfalse {citetracker}\boolfalse {pagetracker}\boolfalse {backtracker}\relax 
\babel@toc {english}{}
\defcounter {refsection}{0}\relax 
\contentsline {section}{\numberline {1}Math Notations}{3}
\defcounter {refsection}{0}\relax 
\contentsline {section}{\numberline {2}Tables}{5}
\defcounter {refsection}{0}\relax 
\contentsline {section}{\numberline {3}Lists}{6}
\defcounter {refsection}{0}\relax 
\contentsline {subsection}{\numberline {3.1}Numbered List}{6}
\defcounter {refsection}{0}\relax 
\contentsline {subsection}{\numberline {3.2}Bullet lists}{6}
\defcounter {refsection}{0}\relax 
\contentsline {subsection}{\numberline {3.3}Labeled Items}{6}
\defcounter {refsection}{0}\relax 
\contentsline {section}{\numberline {4}Format Text}{7}
\defcounter {refsection}{0}\relax 
\contentsline {section}{\numberline {5}Calculus}{8}
