\relax 
\abx@aux@refcontext{nty/global//global/global}
\@writefile{toc}{\boolfalse {citerequest}\boolfalse {citetracker}\boolfalse {pagetracker}\boolfalse {backtracker}\relax }
\@writefile{lof}{\boolfalse {citerequest}\boolfalse {citetracker}\boolfalse {pagetracker}\boolfalse {backtracker}\relax }
\@writefile{lot}{\boolfalse {citerequest}\boolfalse {citetracker}\boolfalse {pagetracker}\boolfalse {backtracker}\relax }
\babel@aux{english}{}
\@writefile{toc}{\defcounter {refsection}{0}\relax }\@writefile{toc}{\contentsline {section}{\numberline {1}Math Notations}{3}}
\@writefile{lof}{\defcounter {refsection}{0}\relax }\@writefile{lof}{\contentsline {figure}{\numberline {1}{\ignorespaces Pythagoras thereom}}{4}}
\newlabel{fig:pythagoras}{{1}{4}}
\@writefile{toc}{\defcounter {refsection}{0}\relax }\@writefile{toc}{\contentsline {section}{\numberline {2}Tables}{5}}
\@writefile{lot}{\defcounter {refsection}{0}\relax }\@writefile{lot}{\contentsline {table}{\numberline {1}{\ignorespaces Caption comes here}}{5}}
\newlabel{tab:data1}{{1}{5}}
\@input{03-lists.aux}
\@input{04-format.aux}
\@input{05-calculus.aux}
\abx@aux@cite{einstein}
\abx@aux@segm{0}{0}{einstein}
\abx@aux@refcontextdefaultsdone
\abx@aux@defaultrefcontext{0}{einstein}{nty/global//global/global}
